## Interface: 11200
## Version: 3
## Title: HonorCap
## Notes: Warns when you are close to your honor cap.|nAlso updates honor tab in real time without needing to relog.
## Author: Kocherga

HonorCap.lua